BGM_0_002_0.ogg
BGM_0_002_6.ogg
BGM_0_003_10.ogg
BGM_0_004_1.ogg
BGM_0_004_3.ogg
BGM_0_004_11.ogg
BGM_0_007_0.ogg
BGM_0_007_1.ogg
BGM_0_010_7.ogg
BGM_0_011_0.ogg
BGM_0_011_5.ogg
BGM_0_011_10.ogg
BGM_0_012_3.ogg
BGM_0_013_0.ogg
BGM_0_013_2.ogg
BGM_0_013_7.ogg
BGM_0_013_12.ogg

BGM_0_007_1.ogg = générique de fin 8bits